%YAML 1.1
%TAG !u! tag:unity3d.com,2011:
--- !u!114 &11400000
MonoBehaviour:
  m_ObjectHideFlags: 0
  m_CorrespondingSourceObject: {fileID: 0}
  m_PrefabInstance: {fileID: 0}
  m_PrefabAsset: {fileID: 0}
  m_GameObject: {fileID: 0}
  m_Enabled: 1
  m_EditorHideFlags: 0
  m_Script: {fileID: 11500000, guid: 7a766420901c706478136fa4ebd66d73, type: 3}
  m_Name: BrickWall
  m_EditorClassIdentifier: 
  m_DefaultSprite: {fileID: -5829841565402598482, guid: 836439448155ee741842e5611c1b0094,
    type: 3}
  m_DefaultGameObject: {fileID: 6279166286532354273, guid: 9c978a382b7b1eb4d993be682ceb8736,
    type: 3}
  m_DefaultColliderType: 1
  m_TilingRules:
  - m_Id: 0
    m_Sprites:
    - {fileID: -5829841565402598482, guid: 836439448155ee741842e5611c1b0094, type: 3}
    m_GameObject: {fileID: 6279166286532354273, guid: 9c978a382b7b1eb4d993be682ceb8736,
      type: 3}
    m_AnimationSpeed: 1
    m_PerlinScale: 0.5
    m_Output: 0
    m_ColliderType: 1
    m_RandomTransform: 0
    m_Neighbors: 
    m_NeighborPositions:
    - {x: -1, y: 1, z: 0}
    - {x: 0, y: 1, z: 0}
    - {x: 1, y: 1, z: 0}
    - {x: -1, y: 0, z: 0}
    - {x: 1, y: 0, z: 0}
    - {x: -1, y: -1, z: 0}
    - {x: 0, y: -1, z: 0}
    - {x: 1, y: -1, z: 0}
    m_RuleTransform: 0
  instance: {fileID: 0}
  instanceLocation: {x: -3, y: 4, z: 0}
  relatedGameObject: {fileID: 11400000, guid: ac039e0ed11397a46979abb53f96773a, type: 2}
