%YAML 1.1
%TAG !u! tag:unity3d.com,2011:
--- !u!1 &7897115668739292105
GameObject:
  m_ObjectHideFlags: 0
  m_CorrespondingSourceObject: {fileID: 0}
  m_PrefabInstance: {fileID: 0}
  m_PrefabAsset: {fileID: 0}
  serializedVersion: 6
  m_Component:
  - component: {fileID: 7897115668739292106}
  - component: {fileID: 97375078782249056}
  - component: {fileID: 463327585}
  m_Layer: 0
  m_Name: GameStateSystem
  m_TagString: Untagged
  m_Icon: {fileID: 0}
  m_NavMeshLayer: 0
  m_StaticEditorFlags: 0
  m_IsActive: 1
--- !u!4 &7897115668739292106
Transform:
  m_ObjectHideFlags: 0
  m_CorrespondingSourceObject: {fileID: 0}
  m_PrefabInstance: {fileID: 0}
  m_PrefabAsset: {fileID: 0}
  m_GameObject: {fileID: 7897115668739292105}
  m_LocalRotation: {x: 0, y: 0, z: 0, w: 1}
  m_LocalPosition: {x: 0, y: 0, z: 0}
  m_LocalScale: {x: 1, y: 1, z: 1}
  m_Children: []
  m_Father: {fileID: 0}
  m_RootOrder: 0
  m_LocalEulerAnglesHint: {x: 0, y: 0, z: 0}
--- !u!114 &97375078782249056
MonoBehaviour:
  m_ObjectHideFlags: 0
  m_CorrespondingSourceObject: {fileID: 0}
  m_PrefabInstance: {fileID: 0}
  m_PrefabAsset: {fileID: 0}
  m_GameObject: {fileID: 7897115668739292105}
  m_Enabled: 1
  m_EditorHideFlags: 0
  m_Script: {fileID: 11500000, guid: 0dabd013377e5011d9c4c99d1f5b73e7, type: 3}
  m_Name: 
  m_EditorClassIdentifier: 
  victoryPanel: {fileID: 0}
  defeatPanel: {fileID: 0}
  transitionDelay: 3
  menuSceneName: Menu
  nextLevelSceneName: Level1
  timeScaleFactor: 0.1
  enemies: {fileID: 11400000, guid: 4f08fc7476df5ace79b088e617c5d8d8, type: 2}
  player: {fileID: 11400000, guid: 15a344acf8fbd4877b489a2720d59163, type: 2}
  upgrade: {fileID: 11400000, guid: b9fe49a563f6a434d877be9b0af3ce4b, type: 2}
  bunker: {fileID: 11400000, guid: ac039e0ed11397a46979abb53f96773a, type: 2}
  remains: {fileID: 11400000, guid: ee9878df4ec19065c823c7d6f80c436f, type: 2}
  score: {fileID: 11400000, guid: 4c6b7b665de49fdf897e456e53c21dc9, type: 2}
  lives: {fileID: 11400000, guid: eaac1feb40114c24297c4b238fabe2ea, type: 2}
  spawnPlayerEvent: {fileID: 11400000, guid: 937febf387740f2438186f54d40cf719, type: 2}
  healthUpdateEvent: {fileID: 11400000, guid: 3815dfc37771f384dbe709b7a8e5029a, type: 2}
--- !u!114 &463327585
MonoBehaviour:
  m_ObjectHideFlags: 0
  m_CorrespondingSourceObject: {fileID: 0}
  m_PrefabInstance: {fileID: 0}
  m_PrefabAsset: {fileID: 0}
  m_GameObject: {fileID: 7897115668739292105}
  m_Enabled: 1
  m_EditorHideFlags: 0
  m_Script: {fileID: 11500000, guid: 3838dee753084c44685eb990e5d63473, type: 3}
  m_Name: 
  m_EditorClassIdentifier: 
  event: {fileID: 11400000, guid: 2c3442e9fa12ac926a363335083b65c3, type: 2}
  response:
    m_PersistentCalls:
      m_Calls:
      - m_Target: {fileID: 97375078782249056}
        m_TargetAssemblyTypeName: 
        m_MethodName: CheckState
        m_Mode: 1
        m_Arguments:
          m_ObjectArgument: {fileID: 0}
          m_ObjectArgumentAssemblyTypeName: UnityEngine.Object, UnityEngine
          m_IntArgument: 0
          m_FloatArgument: 0
          m_StringArgument: 
          m_BoolArgument: 0
        m_CallState: 2
