%YAML 1.1
%TAG !u! tag:unity3d.com,2011:
--- !u!114 &11400000
MonoBehaviour:
  m_ObjectHideFlags: 0
  m_CorrespondingSourceObject: {fileID: 0}
  m_PrefabInstance: {fileID: 0}
  m_PrefabAsset: {fileID: 0}
  m_GameObject: {fileID: 0}
  m_Enabled: 1
  m_EditorHideFlags: 0
  m_Script: {fileID: 11500000, guid: e7d2dcf09801bf449b90fdee1171adce, type: 3}
  m_Name: PowerTankData
  m_EditorClassIdentifier: 
  objectType: 0
  health: 1
  speed: 2
  shellSpeed: 3
  shellPower: 1
  shellLevel: 1
  activeShells: 1
  shell: {fileID: 4681306094915991114, guid: 71f2d87b2bce8d22aa54fb13ca1b2c74, type: 3}
  icon: {fileID: 2192060277098370725, guid: 46a84193fcf98c049968a14860bcaf6a, type: 3}
  label: Power Tank
