{
    "name": "InputMaster",
    "maps": [
        {
            "name": "Player",
            "id": "01a84b36-6c94-4b28-bd09-3c81498a17ef",
            "actions": [
                {
                    "name": "Shoot",
                    "type": "Button",
                    "id": "39c67faf-af10-4dcd-987e-adb06e2442b8",
                    "expectedControlType": "",
                    "processors": "",
                    "interactions": ""
                },
                {
                    "name": "Movement",
                    "type": "Button",
                    "id": "43a0e1ec-61f9-4c42-aaa1-172f00934dd6",
                    "expectedControlType": "",
                    "processors": "",
                    "interactions": "Hold"
                }
            ],
            "bindings": [
                {
                    "name": "",
                    "id": "c0e526c9-14e3-4c92-b5b4-fb660b83709b",
                    "path": "<Keyboard>/space",
                    "interactions": "",
                    "processors": "",
                    "groups": "Keyboard",
                    "action": "Shoot",
                    "isComposite": false,
                    "isPartOfComposite": false
                },
                {
                    "name": "",
                    "id": "b9f04ce4-139a-4bea-b35d-e80429342c35",
                    "path": "<Gamepad>/buttonSouth",
                    "interactions": "",
                    "processors": "",
                    "groups": "Gamepad",
                    "action": "Shoot",
                    "isComposite": false,
                    "isPartOfComposite": false
                },
                {
                    "name": "ArrowKeys",
                    "id": "12b4a496-7185-4008-b1de-70329b51a196",
                    "path": "2DVector",
                    "interactions": "",
                    "processors": "",
                    "groups": "",
                    "action": "Movement",
                    "isComposite": true,
                    "isPartOfComposite": false
                },
                {
                    "name": "up",
                    "id": "f79a995b-ec80-44d7-bca2-3166f2856e34",
                    "path": "<Keyboard>/upArrow",
                    "interactions": "",
                    "processors": "",
                    "groups": "Keyboard",
                    "action": "Movement",
                    "isComposite": false,
                    "isPartOfComposite": true
                },
                {
                    "name": "down",
                    "id": "dc7564b3-b5a6-4301-82ab-e5d51092d8bd",
                    "path": "<Keyboard>/downArrow",
                    "interactions": "",
                    "processors": "",
                    "groups": "Keyboard",
                    "action": "Movement",
                    "isComposite": false,
                    "isPartOfComposite": true
                },
                {
                    "name": "left",
                    "id": "d9c71ca4-75d7-4272-bab7-12e32ce4233f",
                    "path": "<Keyboard>/leftArrow",
                    "interactions": "",
                    "processors": "",
                    "groups": "Keyboard",
                    "action": "Movement",
                    "isComposite": false,
                    "isPartOfComposite": true
                },
                {
                    "name": "right",
                    "id": "44408ba1-bb2e-4f29-943b-42b6eef95c2c",
                    "path": "<Keyboard>/rightArrow",
                    "interactions": "",
                    "processors": "",
                    "groups": "Keyboard",
                    "action": "Movement",
                    "isComposite": false,
                    "isPartOfComposite": true
                },
                {
                    "name": "WASDKeys",
                    "id": "8a3c19e2-01f8-49e7-9beb-a954e20be171",
                    "path": "2DVector",
                    "interactions": "",
                    "processors": "",
                    "groups": "",
                    "action": "Movement",
                    "isComposite": true,
                    "isPartOfComposite": false
                },
                {
                    "name": "Up",
                    "id": "4310f4f0-1589-4e01-88a1-6d8d929f749a",
                    "path": "<Keyboard>/w",
                    "interactions": "",
                    "processors": "",
                    "groups": "Keyboard",
                    "action": "Movement",
                    "isComposite": false,
                    "isPartOfComposite": true
                },
                {
                    "name": "Down",
                    "id": "b25d6e07-d658-4ae8-b6bc-13613bc09e8f",
                    "path": "<Keyboard>/s",
                    "interactions": "",
                    "processors": "",
                    "groups": "Keyboard",
                    "action": "Movement",
                    "isComposite": false,
                    "isPartOfComposite": true
                },
                {
                    "name": "Left",
                    "id": "6595b5d6-f384-45a6-bbeb-5e15de44920c",
                    "path": "<Keyboard>/a",
                    "interactions": "",
                    "processors": "",
                    "groups": "",
                    "action": "Movement",
                    "isComposite": false,
                    "isPartOfComposite": true
                },
                {
                    "name": "Right",
                    "id": "8f44ca66-5786-4bd1-98b8-83e75150656d",
                    "path": "<Keyboard>/d",
                    "interactions": "",
                    "processors": "",
                    "groups": "",
                    "action": "Movement",
                    "isComposite": false,
                    "isPartOfComposite": true
                },
                {
                    "name": "DPad",
                    "id": "5a575611-30b2-4533-b057-47ae8dc3da55",
                    "path": "2DVector(mode=2)",
                    "interactions": "",
                    "processors": "",
                    "groups": "",
                    "action": "Movement",
                    "isComposite": true,
                    "isPartOfComposite": false
                },
                {
                    "name": "up",
                    "id": "656bfc67-363e-4f5e-9d93-e7803906a65a",
                    "path": "<Gamepad>/dpad/up",
                    "interactions": "",
                    "processors": "",
                    "groups": "Gamepad",
                    "action": "Movement",
                    "isComposite": false,
                    "isPartOfComposite": true
                },
                {
                    "name": "down",
                    "id": "97bdce8f-9d99-44e9-bfd6-8093b7c3a4fd",
                    "path": "<Gamepad>/dpad/down",
                    "interactions": "",
                    "processors": "",
                    "groups": "Gamepad",
                    "action": "Movement",
                    "isComposite": false,
                    "isPartOfComposite": true
                },
                {
                    "name": "left",
                    "id": "60afb08c-c4ec-45ac-af83-3d6a796cc351",
                    "path": "<Gamepad>/dpad/left",
                    "interactions": "",
                    "processors": "",
                    "groups": "Gamepad",
                    "action": "Movement",
                    "isComposite": false,
                    "isPartOfComposite": true
                },
                {
                    "name": "right",
                    "id": "4834fd1f-01f8-4421-9a88-c20e1d190d72",
                    "path": "<Gamepad>/dpad/right",
                    "interactions": "",
                    "processors": "",
                    "groups": "Gamepad",
                    "action": "Movement",
                    "isComposite": false,
                    "isPartOfComposite": true
                }
            ]
        }
    ],
    "controlSchemes": [
        {
            "name": "Keyboard",
            "bindingGroup": "Keyboard",
            "devices": [
                {
                    "devicePath": "<Keyboard>",
                    "isOptional": false,
                    "isOR": false
                }
            ]
        },
        {
            "name": "Gamepad",
            "bindingGroup": "Gamepad",
            "devices": [
                {
                    "devicePath": "<Gamepad>",
                    "isOptional": false,
                    "isOR": false
                }
            ]
        }
    ]
}